{
    "KPlugin": {
        "Authors": [
            {
                "Email": "plasma-devel@kde.org",
                "Name": "Plasma Team",
                "Name[ar]": "فريق بلازما",
                "Name[az]": "Plasma komandası",
                "Name[bg]": "Екипът на Plasma",
                "Name[ca@valencia]": "L'equip de Plasma",
                "Name[ca]": "L'equip del Plasma",
                "Name[cs]": "Team Plasma",
                "Name[de]": "Das Plasma-Team",
                "Name[en_GB]": "Plasma Team",
                "Name[eo]": "Plasma Teamo",
                "Name[es]": "Equipo de Plasma",
                "Name[eu]": "Plasma taldea",
                "Name[fi]": "Plasma-työryhmä",
                "Name[fr]": "Équipe de Plasma",
                "Name[gl]": "Equipo de Plasma",
                "Name[ia]": "Equipa de Plasma",
                "Name[id]": "Tim Plasma",
                "Name[is]": "Plasma-þróunarhópurinn",
                "Name[it]": "La squadra di Plasma",
                "Name[ja]": "Plasma チーム",
                "Name[ka]": "Plasma-ის გუნდი",
                "Name[ko]": "Plasma 팀",
                "Name[lt]": "Plasma komanda",
                "Name[nl]": "Team van Plasma",
                "Name[nn]": "Utviklingslaget for Plasma",
                "Name[pl]": "Zespół Plazmy",
                "Name[pt]": "Equipa do Plasma",
                "Name[pt_BR]": "Equipe do Plasma",
                "Name[ro]": "Echipa Plasma",
                "Name[ru]": "Команда разработчиков Plasma",
                "Name[sk]": "Tím Plasma",
                "Name[sl]": "Ekipa Plasma",
                "Name[sv]": "Plasma-gruppen",
                "Name[tr]": "Plasma Takımı",
                "Name[uk]": "Команда розробників Плазми",
                "Name[vi]": "Đội Plasma",
                "Name[x-test]": "xxPlasma Teamxx",
                "Name[zh_CN]": "Plasma Team",
                "Name[zh_TW]": "Plasma 團隊"
            }
        ],
        "Description": "The current date and time, locally or in any timezone",
        "Description[ar]": "التاريخ والوقت الحاليين، محلياً أو في أيّ منطقة زمنية",
        "Description[az]": "Cari tarix və vaxt. Yerli və ya istənilən vaxt qurşağı",
        "Description[bg]": "Настояща дата и час на местната или друга часова зона",
        "Description[ca@valencia]": "La data i l'hora actuals, localment o en qualsevol zona horària",
        "Description[ca]": "La data i l'hora actuals, localment o en qualsevol zona horària",
        "Description[cs]": "Aktuální datum a čas, lokální, nebo v libovolném časovém pásmu",
        "Description[de]": "Aktuelles Datum und Zeit; lokal oder in einer anderen Zeitzone",
        "Description[en_GB]": "The current date and time, locally or in any timezone",
        "Description[eo]": "La aktuala dato kaj horo, loke aŭ en iu ajn horzono",
        "Description[es]": "La fecha y hora actuales, locales o de cualquier zona horaria",
        "Description[eu]": "Uneko data eta ordua, tokikoa edo edozein ordu-eremuetakoa",
        "Description[fi]": "Nykyinen päiväys ja aika – paikallinen tai minkä aikavyöhykkeen vain",
        "Description[fr]": "La date et l'heure actuelles, localement ou dans un fuseau horaire quelconque.",
        "Description[gl]": "A data e hora actuais, locais ou de calquera fuso horario.",
        "Description[ia]": "Le data e tempore currente, localmente o in ulle fuso horari",
        "Description[id]": "Tanggal dan waktu saat ini, secara lokal atau di zona waktu mana pun",
        "Description[it]": "La data e l'ora corrente, localmente o in qualsiasi fuso orario",
        "Description[ja]": "現在の日時を任意のタイムゾーンで表示します",
        "Description[ka]": "მიმდინარე თარიღი და დრო, ლოკალურად თუ ნებისმიერი დროის სარტყელში",
        "Description[ko]": "오늘 날짜와 시간",
        "Description[lt]": "Dabartinis laikas ir data, vietinė arba pasirinktos laiko juostos",
        "Description[nl]": "De huidige datum en tijd, lokaal of in elke tijdzone",
        "Description[nn]": "Dagens dato og klokkeslett, lokalt eller i ei anna tidssone",
        "Description[pl]": "Data i czas w dowolnej strefie czasowej",
        "Description[pt]": "A data e hora actuais, localmente ou em qualquer fuso-horário",
        "Description[pt_BR]": "A data e a hora atual, local ou em qualquer fuso horário",
        "Description[ro]": "Data și ora curentă, local sau din orice fus orar",
        "Description[ru]": "Текущие дата и время. Местные или для любого часового пояса.",
        "Description[sk]": "Aktuálny dátum a čas, lokálny alebo inú časovú zónu",
        "Description[sl]": "Trenutni datum in čas, lokalno ali v kateremkoli časovnem pasu",
        "Description[sv]": "Nuvarande datum och tid, lokalt eller i godtycklig tidszon",
        "Description[tr]": "Geçerli tarih ve zaman, yerel olarak veya değişik zaman dilimlerinde",
        "Description[uk]": "Поточна дата і час, місцевий або час будь-якого часового поясу",
        "Description[vi]": "Ngày giờ hiện tại, ở địa phương hoặc bất kì múi giờ nào",
        "Description[x-test]": "xxThe current date and time, locally or in any timezonexx",
        "Description[zh_CN]": "显示当前日期和时间，可以是本地时间或者任意时区的时间",
        "Description[zh_TW]": "任何時區下的目前時間與日期",
        "EnabledByDefault": true,
        "Icon": "clock",
        "License": "LGPL",
        "Name": "Date and Time",
        "Name[ar]": "التاريخ والوقت",
        "Name[ast]": "Data ya hora",
        "Name[az]": "Tarix və Vaxt",
        "Name[bg]": "Дата и час",
        "Name[ca@valencia]": "Data i hora",
        "Name[ca]": "Data i hora",
        "Name[cs]": "Datum a čas",
        "Name[de]": "Datum und Zeit",
        "Name[en_GB]": "Date and Time",
        "Name[eo]": "Dato kaj Tempo",
        "Name[es]": "Fecha y hora",
        "Name[eu]": "Data eta ordua",
        "Name[fi]": "Aika ja päiväys",
        "Name[fr]": "Date et heure",
        "Name[gl]": "Data e hora",
        "Name[ia]": "Data e Tempore",
        "Name[id]": "Tanggal dan Waktu",
        "Name[is]": "Dagsetning og tími",
        "Name[it]": "Data e ora",
        "Name[ja]": "日付と時間",
        "Name[ka]": "თარიღი და დრო",
        "Name[ko]": "날짜와 시간",
        "Name[lt]": "Data ir laikas",
        "Name[nl]": "Datum en tijd",
        "Name[nn]": "Dato og klokkeslett",
        "Name[pl]": "Data i czas",
        "Name[pt]": "Data e Hora",
        "Name[pt_BR]": "Data e hora",
        "Name[ro]": "Data și ora",
        "Name[ru]": "Дата и время",
        "Name[sk]": "Dátum a čas",
        "Name[sl]": "Datum in čas",
        "Name[sv]": "Datum och tid",
        "Name[tr]": "Tarih ve Zaman",
        "Name[uk]": "Дата і час",
        "Name[vi]": "Ngày giờ",
        "Name[x-test]": "xxDate and Timexx",
        "Name[zh_CN]": "日期和时间",
        "Name[zh_TW]": "日期與時間"
    }
}
