{
    "KPackageStructure": "Plasma/Applet",
    "KPlugin": {
        "Authors": [
            {
                "Email": "jowenn@kde.org",
                "Name": "Joseph Wenninger",
                "Name[ar]": "جوزيف وينينجر",
                "Name[az]": "Joseph Wenninger",
                "Name[bg]": "Joseph Wenninger",
                "Name[ca@valencia]": "Joseph Wenninger",
                "Name[ca]": "Joseph Wenninger",
                "Name[cs]": "Joseph Wenninger",
                "Name[de]": "Joseph Wenninger",
                "Name[en_GB]": "Joseph Wenninger",
                "Name[eo]": "Joseph Wenninger",
                "Name[es]": "Joseph Wenninger",
                "Name[eu]": "Joseph Wenninger",
                "Name[fi]": "Joseph Wenninger",
                "Name[fr]": "Joseph Wenninger",
                "Name[gl]": "Joseph Wenninger",
                "Name[ia]": "Joseph Wenninger",
                "Name[id]": "Joseph Wenninger",
                "Name[is]": "Joseph Wenninger",
                "Name[it]": "Joseph Wenninger",
                "Name[ja]": "Joseph Wenninger",
                "Name[ka]": "Joseph Wenninger",
                "Name[ko]": "Joseph Wenninger",
                "Name[lt]": "Joseph Wenninger",
                "Name[nl]": "Joseph Wenninger",
                "Name[nn]": "Joseph Wenninger",
                "Name[pl]": "Joseph Wenninger",
                "Name[pt]": "Joseph Wenninger",
                "Name[pt_BR]": "Joseph Wenninger",
                "Name[ro]": "Joseph Wenninger",
                "Name[ru]": "Joseph Wenninger",
                "Name[sk]": "Joseph Wenninger",
                "Name[sl]": "Joseph Wenninger",
                "Name[sv]": "Joseph Wenninger",
                "Name[tr]": "Joseph Wenninger",
                "Name[uk]": "Joseph Wenninger",
                "Name[vi]": "Joseph Wenninger",
                "Name[x-test]": "xxJoseph Wenningerxx",
                "Name[zh_CN]": "Joseph Wenninger",
                "Name[zh_TW]": "Joseph Wenninger"
            },
            {
                "Email": "davide.bettio@kdemail.net",
                "Name": "Davide Bettio",
                "Name[ar]": "Davide Bettio",
                "Name[az]": "Davide Bettio",
                "Name[bg]": "Davide Bettio",
                "Name[ca@valencia]": "Davide Bettio",
                "Name[ca]": "Davide Bettio",
                "Name[cs]": "Davide Bettio",
                "Name[de]": "Davide Bettio",
                "Name[en_GB]": "Davide Bettio",
                "Name[eo]": "Davide Bettio",
                "Name[es]": "Davide Bettio",
                "Name[eu]": "Davide Bettio",
                "Name[fi]": "Davide Bettio",
                "Name[fr]": "Davide Bettio",
                "Name[gl]": "Davide Bettio",
                "Name[ia]": "Davide Bettio",
                "Name[id]": "Davide Bettio",
                "Name[is]": "Davide Bettio",
                "Name[it]": "Davide Bettio",
                "Name[ja]": "Davide Bettio",
                "Name[ka]": "Davide Bettio",
                "Name[ko]": "Davide Bettio",
                "Name[lt]": "Davide Bettio",
                "Name[nl]": "Davide Bettio",
                "Name[nn]": "Davide Bettio",
                "Name[pl]": "Davide Bettio",
                "Name[pt]": "Davide Bettio",
                "Name[pt_BR]": "Davide Bettio",
                "Name[ro]": "Davide Bettio",
                "Name[ru]": "Davide Bettio",
                "Name[sk]": "Davide Bettio",
                "Name[sl]": "Davide Bettio",
                "Name[sv]": "Davide Bettio",
                "Name[tr]": "Davide Bettio",
                "Name[uk]": "Davide Bettio",
                "Name[vi]": "Davide Bettio",
                "Name[x-test]": "xxDavide Bettioxx",
                "Name[zh_CN]": "Davide Bettio",
                "Name[zh_TW]": "Davide Bettio"
            },
            {
                "Email": "piotrkakol@protonmail.com",
                "Name": "Piotr Kąkol",
                "Name[ar]": "Piotr Kąkol",
                "Name[az]": "Piotr Kąkol",
                "Name[bg]": "Piotr Kąkol",
                "Name[ca@valencia]": "Piotr Kąkol",
                "Name[ca]": "Piotr Kąkol",
                "Name[cs]": "Piotr Kąkol",
                "Name[de]": "Piotr Kąkol",
                "Name[en_GB]": "Piotr Kąkol",
                "Name[eo]": "Piotr Kąkol",
                "Name[es]": "Piotr Kąkol",
                "Name[eu]": "Piotr Kąkol",
                "Name[fi]": "Piotr Kąkol",
                "Name[fr]": "Piotr Kąkol",
                "Name[gl]": "Piotr Kąkol",
                "Name[ia]": "Piotr Kąkol",
                "Name[id]": "Piotr Kąkol",
                "Name[it]": "Piotr Kąkol",
                "Name[ja]": "Piotr Kąkol",
                "Name[ka]": "Piotr Kąkol",
                "Name[ko]": "Piotr Kąkol",
                "Name[lt]": "Piotr Kąkol",
                "Name[nl]": "Piotr Kąkol",
                "Name[nn]": "Piotr Kąkol",
                "Name[pl]": "Piotr Kąkol",
                "Name[pt]": "Piotr Kąkol",
                "Name[pt_BR]": "Piotr Kąkol",
                "Name[ru]": "Piotr Kąkol",
                "Name[sk]": "Piotr Kąkol",
                "Name[sl]": "Piotr Kąkol",
                "Name[sv]": "Piotr Kąkol",
                "Name[tr]": "Piotr Kąkol",
                "Name[uk]": "Piotr Kąkol",
                "Name[vi]": "Piotr Kąkol",
                "Name[x-test]": "xxPiotr Kąkolxx",
                "Name[zh_CN]": "Piotr Kąkol",
                "Name[zh_TW]": "Piotr Kąkol"
            }
        ],
        "Category": "Date and Time",
        "Description": "Time displayed in binary format",
        "Description[ar]": "الوقت يظهر بالتنسيق الثنائي",
        "Description[az]": "Vaxt, binar formatında göstərilir",
        "Description[bg]": "Представяне на часа в бинарен формат",
        "Description[ca@valencia]": "Mostra l'hora en format binari",
        "Description[ca]": "Mostra l'hora en format binari",
        "Description[cs]": "Zobrazení času v binárním formátu",
        "Description[de]": "Zeitanzeige in Binärformat",
        "Description[en_GB]": "Time displayed in binary format",
        "Description[eo]": "Tempo montrita en binara formato",
        "Description[es]": "Hora mostrada en formato binario",
        "Description[eu]": "Ordua formatu bitarrean bistaratua",
        "Description[fi]": "Binaarimuodossa esitetty kellonaika",
        "Description[fr]": "Heure affichée dans un format numérique",
        "Description[gl]": "Mostra a hora no formato binario",
        "Description[ia]": "Tempore monstrate in formato binari",
        "Description[id]": "Waktu ditampilkan dalam format binari",
        "Description[is]": "Sýnir tímann á tvíundarformi",
        "Description[it]": "Ora mostrata in formato binario",
        "Description[ja]": "時間をバイナリ形式で表示します",
        "Description[ka]": "ორობითში ნაჩვენები დრო",
        "Description[ko]": "이진수로 시각 표시",
        "Description[lt]": "Dvejetainiu formatu rodomas laikas",
        "Description[nl]": "De tijd in binair formaat",
        "Description[nn]": "Klokka vist i binærformat",
        "Description[pl]": "Wyświetla czas w formacie dwójkowym",
        "Description[pt]": "A hora apresentada no formato binário",
        "Description[pt_BR]": "Hora exibida em formato binário",
        "Description[ro]": "Ora afișată în format binar",
        "Description[ru]": "Время в двоичной записи",
        "Description[sk]": "Čas zobrazený v binárnom tvare",
        "Description[sl]": "Čas prikazan v binarnem formatu",
        "Description[sv]": "Tid visad med binärformat",
        "Description[tr]": "İkili biçimde gösterilen zaman",
        "Description[uk]": "Час, показаний у двійковому форматі",
        "Description[vi]": "Thời gian hiển thị ở dạng nhị phân",
        "Description[x-test]": "xxTime displayed in binary formatxx",
        "Description[zh_CN]": "以二进制格式显示时间",
        "Description[zh_TW]": "以二進位制顯示時間",
        "EnabledByDefault": true,
        "Icon": "clock",
        "Id": "org.kde.plasma.binaryclock",
        "License": "GPL-2.0+",
        "Name": "Binary Clock",
        "Name[ar]": "ساعة ثنائية",
        "Name[ast]": "Reló binariu",
        "Name[az]": "Binar saat",
        "Name[bg]": "Двоичен часовник",
        "Name[ca@valencia]": "Rellotge binari",
        "Name[ca]": "Rellotge binari",
        "Name[cs]": "Binární hodiny",
        "Name[de]": "Binäre Uhr",
        "Name[en_GB]": "Binary Clock",
        "Name[eo]": "Binara Horloĝo",
        "Name[es]": "Reloj binario",
        "Name[eu]": "Ordulari bitarra",
        "Name[fi]": "Binaarikello",
        "Name[fr]": "Horloge numérique",
        "Name[gl]": "Reloxo binario",
        "Name[ia]": "Horologio binari",
        "Name[id]": "Jam Binari",
        "Name[is]": "Tvíundarklukka",
        "Name[it]": "Orologio binario",
        "Name[ja]": "バイナリ時計",
        "Name[ka]": "ბინარული საათი",
        "Name[ko]": "바이너리 시계",
        "Name[lt]": "Dvejetainis laikrodis",
        "Name[nl]": "Binaire klok",
        "Name[nn]": "Binær­klokke",
        "Name[pl]": "Zegar dwójkowy",
        "Name[pt]": "Relógio Binário",
        "Name[pt_BR]": "Relógio binário",
        "Name[ro]": "Ceas binar",
        "Name[ru]": "Двоичные часы",
        "Name[sk]": "Binárne hodiny",
        "Name[sl]": "Binarna ura",
        "Name[sv]": "Binärklocka",
        "Name[tr]": "İkili Saat",
        "Name[uk]": "Двійковий годинник",
        "Name[vi]": "Đồng hồ nhị phân",
        "Name[x-test]": "xxBinary Clockxx",
        "Name[zh_CN]": "二进制时钟",
        "Name[zh_TW]": "二進位時鐘",
        "Version": "2.0",
        "Website": "https://kde.org/plasma-desktop"
    },
    "X-Plasma-API": "declarativeappletscript",
    "X-Plasma-MainScript": "ui/main.qml",
    "X-Plasma-Provides": [
        "org.kde.plasma.time",
        "org.kde.plasma.date"
    ]
}
