{
    "KPlugin": {
        "Authors": [
            {
                "Email": "akreuzkamp@web.de",
                "Name": "Anton Kreuzkamp",
                "Name[ar]": "Anton Kreuzkamp",
                "Name[az]": "Anton Kreuzkamp",
                "Name[bg]": "Anton Kreuzkamp",
                "Name[ca@valencia]": "Anton Kreuzkamp",
                "Name[ca]": "Anton Kreuzkamp",
                "Name[cs]": "Anton Kreuzkamp",
                "Name[de]": "Anton Kreuzkamp",
                "Name[en_GB]": "Anton Kreuzkamp",
                "Name[eo]": "Anton Kreuzkamp",
                "Name[es]": "Anton Kreuzkamp",
                "Name[eu]": "Anton Kreuzkamp",
                "Name[fi]": "Anton Kreuzkamp",
                "Name[fr]": "Anton Kreuzkamp",
                "Name[gl]": "Anton Kreuzkamp",
                "Name[ia]": "Anton Kreuzkamp",
                "Name[id]": "Anton Kreuzkamp",
                "Name[is]": "Anton Kreuzkamp",
                "Name[it]": "Anton Kreuzkamp",
                "Name[ja]": "Anton Kreuzkamp",
                "Name[ka]": "Anton Kreuzkamp",
                "Name[ko]": "Anton Kreuzkamp",
                "Name[lt]": "Anton Kreuzkamp",
                "Name[nl]": "Anton Kreuzkamp",
                "Name[nn]": "Anton Kreuzkamp",
                "Name[pl]": "Anton Kreuzkamp",
                "Name[pt]": "Anton Kreuzkamp",
                "Name[pt_BR]": "Anton Kreuzkamp",
                "Name[ro]": "Anton Kreuzkamp",
                "Name[ru]": "Anton Kreuzkamp",
                "Name[sk]": "Anton Kreuzkamp",
                "Name[sl]": "Anton Kreuzkamp",
                "Name[sv]": "Anton Kreuzkamp",
                "Name[tr]": "Anton Kreuzkamp",
                "Name[uk]": "Anton Kreuzkamp",
                "Name[vi]": "Anton Kreuzkamp",
                "Name[x-test]": "xxAnton Kreuzkampxx",
                "Name[zh_CN]": "Anton Kreuzkamp",
                "Name[zh_TW]": "Anton Kreuzkamp"
            }
        ],
        "Description": "Creates special characters from their hexadecimal codes",
        "Description[ar]": "يُنشئ محارف خاصة من رموزها الست-عشريّة",
        "Description[az]": "Onların onaltılıq kodundan xüsusi simvollar yaradır",
        "Description[bg]": "Създава специални символи от техния шестнадесетичен код",
        "Description[ca@valencia]": "Crea caràcters especials a partir dels seus codis hexadecimals",
        "Description[ca]": "Crea caràcters especials a partir dels seus codis hexadecimals",
        "Description[cs]": "Vytváří speciální znaky z jejich hexadecimálních kódů",
        "Description[de]": "Erstellt Sonderzeichen aus ihren Hexadezimalwerten",
        "Description[en_GB]": "Creates special characters from their hexadecimal codes",
        "Description[eo]": "Kreas specialajn signojn el iliaj deksesuma kodoj",
        "Description[es]": "Crea caracteres especiales a partir de sus códigos en hexadecimal",
        "Description[eu]": "Karaktere bereziak sortzen ditu haien kode hamaseitarretatik abiatuta",
        "Description[fi]": "Lisää erikoismerkkejä niiden heksakoodeista",
        "Description[fr]": "Crée des caractères spéciaux à partir de leurs codes hexadécimaux.",
        "Description[gl]": "Crea caracteres especiais a partir dos seus códigos hexadecimais.",
        "Description[ia]": "Crea characteres special ab lor odices hexadecimal",
        "Description[id]": "Membuat karakter khusus dari kode heksadesimalnya",
        "Description[it]": "Crea caratteri speciali dal loro codice esadecimale",
        "Description[ja]": "十六進コードから特殊文字を作ります",
        "Description[ka]": "სპეციალური სიმბოლოების შექმნა მათი თექვსმეტობითი კოდებისგან",
        "Description[ko]": "16진 코드를 사용하여 특수 문자 삽입",
        "Description[lt]": "Sukuria specialius simbolius pagal jų šešioliktainius kodus",
        "Description[nl]": "Maakt speciale tekens aan uit hun hexadecimale codes",
        "Description[nn]": "Lagar spesialteikn ut frå heksadesimalekodar",
        "Description[pl]": "Tworzy znaki specjalne z ich kodów szesnastkowych",
        "Description[pt]": "Cria caracteres especiais a partir dos seus códigos em hexadecimal",
        "Description[pt_BR]": "Cria caracteres especiais de seus códigos hexadecimais",
        "Description[ro]": "Creează caractere speciale din codurile hexazecimale ale acestora",
        "Description[ru]": "Создаёт специальные символы из их шестнадцатеричных кодов",
        "Description[sk]": "Vytvára špeciálne znaky z ich hexadecimálnych kódov",
        "Description[sl]": "Ustvari posebne znake in njihovih šestnajstiških kod",
        "Description[sv]": "Skapar specialtecken från deras hexadecimala koder",
        "Description[tr]": "Onaltılık kodlarından özel karakterler oluşturur",
        "Description[uk]": "Створення спеціальних символів за їхнім шістнадцятковим кодом",
        "Description[vi]": "Tạo ra các kí tự đặc biệt từ mã thập lục phân",
        "Description[x-test]": "xxCreates special characters from their hexadecimal codesxx",
        "Description[zh_CN]": "输入十六进制码生成特殊字符",
        "Description[zh_TW]": "用十六進位代碼建立特殊字元",
        "EnabledByDefault": true,
        "Icon": "accessories-character-map",
        "License": "GPL",
        "Name": "Special Characters",
        "Name[ar]": "محارف خاصة",
        "Name[ast]": "Caráuteres especiales",
        "Name[az]": "Xüsusi simvollar",
        "Name[bg]": "Специални символи",
        "Name[ca@valencia]": "Caràcters especials",
        "Name[ca]": "Caràcters especials",
        "Name[cs]": "Zvláštní znaky",
        "Name[de]": "Sonderzeichen",
        "Name[en_GB]": "Special Characters",
        "Name[eo]": "Specialaj Signoj",
        "Name[es]": "Caracteres especiales",
        "Name[eu]": "Karaktere bereziak",
        "Name[fi]": "Erikoismerkit",
        "Name[fr]": "Caractères spéciaux",
        "Name[gl]": "Caracteres especiais",
        "Name[ia]": "Characteres special",
        "Name[id]": "Karakter Spesial",
        "Name[is]": "Sérstafir",
        "Name[it]": "Caratteri speciali",
        "Name[ja]": "特殊文字",
        "Name[ka]": "სპეციალური სიმბოლოები",
        "Name[ko]": "특수 문자",
        "Name[lt]": "Specialūs simboliai",
        "Name[nl]": "Speciale tekens",
        "Name[nn]": "Spesialteikn",
        "Name[pl]": "Znaki z tablicy",
        "Name[pt]": "Caracteres Especiais",
        "Name[pt_BR]": "Caracteres especiais",
        "Name[ro]": "Caractere speciale",
        "Name[ru]": "Специальные символы",
        "Name[sk]": "Špeciálne znaky",
        "Name[sl]": "Posebni znaki",
        "Name[sv]": "Specialtecken",
        "Name[tr]": "Özel Karakterler",
        "Name[uk]": "Спеціальні символи",
        "Name[vi]": "Kí tự đặc biệt",
        "Name[x-test]": "xxSpecial Charactersxx",
        "Name[zh_CN]": "特殊字符",
        "Name[zh_TW]": "特殊字元"
    },
    "X-KDE-ConfigModule": "kf6/krunner/kcms/kcm_krunner_charrunner"
}
